#t	x	y
0	4.71915521583	75.0484219767
1	4.78191273573	76.0464507807
2	4.84467025564	77.0444795848
3	4.90742777555	78.0425083888
4	4.97018529545	79.0405371929
5	4.20612874942	79.6856864736
6	4.25883936406	80.6842963029
7	4.91718500569	79.9315805424
8	4.9785863569	80.9296936993
9	5.0399877081	81.9278068563
10	5.10138905931	82.9259200132
11	5.16279041052	83.9240331701
12	5.22419176172	84.9221463271
13	4.62780009123	85.7248399021
14	4.68170595302	86.7233859241
15	4.73561181481	87.7219319461
16	4.7895176766	88.7204779681
17	4.84342353839	89.7190239901
18	4.89732940018	90.7175700121
19	4.95123526197	91.7161160341
20	5.00514112376	92.7146620562
21	5.05904698555	93.7132080782
22	5.11295284734	94.7117541002
23	5.16685870913	95.7103001222
24	5.22076457092	96.7088461442
25	5.27467043272	97.7073921662
26	5.32857629451	98.7059381882
27	4.47753250823	99.2310329166
28	4.52260894398	100.0
