#t	x	y
0	93.6608418435	18.2470158016
1	94.6423880822	18.4382407508
2	95.623934321	18.6294657001
3	96.6054805597	18.8206906493
4	97.5870267985	19.0119155986
5	98.5685730372	19.2031405478
6	99.5501192759	19.3943654971
7	100.0	19.5855904463
