#t	x	y
0	32.566002691	29.2193820241
1	31.8216863614	28.5515547998
2	31.0773700318	27.8837275756
3	30.3330537022	27.2159003513
4	29.5887373725	26.5480731271
5	28.8444210429	25.8802459028
6	28.1001047133	25.2124186786
7	27.3557883837	24.5445914543
8	26.611472054	23.8767642301
9	25.8671557244	23.2089370058
10	25.1228393948	22.5411097816
11	24.3785230651	21.8732825573
12	23.6342067355	21.2054553331
13	22.8898904059	20.5376281088
14	22.1455740763	19.8698008846
15	21.4012577466	19.2019736603
16	20.656941417	18.5341464361
17	19.9126250874	17.8663192118
18	19.1683087578	17.1984919876
19	18.4239924281	16.5306647633
20	17.6796760985	15.8628375391
21	16.9353597689	15.1950103148
22	16.1910434393	14.5271830906
23	15.4467271096	13.8593558663
24	14.70241078	13.1915286421
25	13.9580944504	12.5237014178
26	13.2137781208	11.8558741936
27	12.4694617911	11.1880469693
28	11.7251454615	10.5202197451
29	10.9808291319	9.8523925208
30	10.2365128022	9.18456529655
31	9.49219647262	8.5167380723
32	8.747880143	7.84891084804
33	8.00356381337	7.18108362379
34	7.25924748374	6.51325639954
35	6.51493115412	5.84542917529
36	5.77061482449	5.17760195104
37	5.02629849486	4.50977472679
38	4.28198216524	3.84194750254
39	3.53766583561	3.17412027828
40	2.79334950598	2.50629305403
41	2.04903317636	1.83846582978
42	1.30471684673	1.17063860553
43	0.560400517105	0.502811381278
44	-0.183915812522	-0.165015842974
