#t	x	y
0	42.1964914336	77.1561081631
1	42.6763190482	78.0334709502
2	43.1561466628	78.9108337374
3	43.6359742774	79.7881965245
4	44.115801892	80.6655593117
5	44.5956295066	81.5429220988
6	45.0754571212	82.420284886
7	45.5552847358	83.2976476731
8	46.0351123504	84.1750104602
9	46.514939965	85.0523732474
10	46.9947675796	85.9297360345
11	47.4745951942	86.8070988217
12	47.9544228088	87.6844616088
13	48.4342504234	88.561824396
14	48.914078038	89.4391871831
15	49.3939056526	90.3165499703
16	49.8737332672	91.1939127574
17	50.3535608818	92.0712755445
18	50.8333884964	92.9486383317
19	51.313216111	93.8260011188
20	51.7930437256	94.703363906
21	52.2728713402	95.5807266931
22	52.7526989548	96.4580894803
23	53.2325265694	97.3354522674
24	53.712354184	98.2128150545
25	54.1921817986	99.0901778417
26	54.6720094132	99.9675406288
27	55.1518370278	100.0
