1 6.61429e-005
2 6.76539e-005
3 7.71411e-005
4 6.15112e-005
5 4.41673e-005
6 6.56245e-005
7 6.67175e-005
8 5.45281e-005
10 6.95752e-005
12 6.6513e-005
13 6.889e-005
14 6.1742e-005
16 6.71389e-005
17 6.69086e-005
18 1.37722e-005
21 7.29104e-005
22 6.08636e-007
23 6.79765e-005
24 6.92214e-005
25 6.8171e-005
27 6.51966e-005
28 1.51856e-005
29 3.58862e-005
30 6.51397e-005
32 1.18065e-005
35 6.37448e-005
39 6.06686e-005
40 6.8048e-005
42 6.62219e-005
43 6.95436e-005
45 6.79372e-005
46 6.70263e-005
48 6.47951e-005
54 6.12385e-005
55 6.90618e-005
57 6.84815e-005
58 6.58677e-005
60 1.7762e-007
62 3.30712e-005
63 6.50581e-005
64 6.66728e-005
65 7.49865e-005
66 2.12424e-007
67 6.44719e-005
68 6.42767e-005
69 6.65771e-005
70 3.11017e-007
72 6.23929e-005
74 7.64562e-005
75 6.45479e-005
76 6.593e-005
82 7.00874e-005
83 6.67405e-005
86 6.62907e-005
87 7.00162e-005
90 4.99769e-006
95 7.10481e-005
96 7.15209e-005
97 6.6174e-005
98 6.74907e-005
99 7.00967e-005
100 6.93664e-005
101 5.96739e-005
102 7.3163e-005
103 7.0303e-005
104 6.47661e-005
105 6.79247e-005
106 7.05424e-005
107 6.85456e-005
110 6.85482e-005
111 6.57281e-005
113 7.53497e-005
115 6.7483e-005
116 6.70636e-005
118 6.35341e-005
120 3.12095e-008
121 6.54972e-005
122 6.43984e-005
123 7.30633e-005
124 6.57761e-005
125 6.26412e-005
126 7.22532e-005
128 6.55362e-005
129 6.65779e-005
130 6.3207e-005
131 7.02668e-005
132 3.24072e-005
134 5.97637e-005
135 6.92602e-005
136 6.80832e-005
137 7.201e-005
138 6.7237e-005
139 6.85812e-005
140 4.40901e-005
141 6.46945e-007
142 3.25594e-005
143 6.87865e-005
145 6.63812e-005
146 6.18342e-005
148 6.39668e-005
149 6.66735e-005
150 6.28448e-005
151 6.71405e-005
152 7.14355e-005
153 6.98631e-005
154 6.95437e-005
156 6.54052e-005
157 6.24695e-005
158 7.03058e-005
159 6.73669e-005
160 1.66153e-005
161 6.61469e-005
162 3.19542e-005
163 6.47259e-005
165 6.40327e-005
166 6.7714e-005
167 4.04029e-005
168 2.60217e-005
169 6.86384e-005
171 6.62017e-005
172 6.82091e-005
173 6.44703e-005
174 6.90779e-005
175 7.16974e-005
176 1.70944e-005
177 6.45556e-005
178 6.47927e-005
179 6.28531e-005
180 3.47865e-008
182 6.87527e-005
184 6.4944e-005
186 6.1825e-005
187 6.63183e-005
189 6.64829e-005
192 6.91233e-005
193 6.45772e-005
195 6.43529e-005
197 6.9371e-005
199 6.65953e-005
