1024
0.0548412 0.0155865
0.0548136 0.0155344
0.0547987 0.0154026
0.0547931 0.0151964
0.0547988 0.0149044
0.0548183 0.0145204
0.0548454 0.0140459
0.0548736 0.0134845
0.0549018 0.0128437
0.0549345 0.012135
0.0549779 0.011372
0.055039 0.010567
0.0551227 0.00973043
0.0552321 0.00887117
0.0553697 0.00799843
0.0555378 0.00712246
0.0557399 0.00625545
0.0559797 0.00541084
0.056268 0.00458679
0.0565995 0.00378241
0.0569626 0.0029992
0.0573457 0.00223895
0.0577378 0.00150462
0.0581282 0.000802303
0.0585079 0.000147023
0.0588592 -0.000438931
0.0591711 -0.000958499
0.0594397 -0.00140713
0.0596632 -0.00178697
0.0598427 -0.00209198
0.0599693 -0.00234299
0.0600376 -0.00256774
0.0547864 0.0156125
0.0547666 0.0155632
0.0547553 0.015434
0.054753 0.0152264
0.0547602 0.0149335
0.054781 0.0145504
0.0548088 0.0140787
0.0548385 0.0135226
0.054869 0.0128889
0.0549049 0.0121887
0.0549523 0.0114353
0.0550178 0.0106406
0.0551062 0.00981476
0.0552208 0.00896643
0.0553634 0.00810462
0.0555363 0.00723936
0.0557428 0.00638209
0.0559862 0.0055461
0.0562753 0.00472993
0.0566059 0.00393419
0.0569673 0.00316091
0.0573481 0.00241215
0.0577378 0.00169136
0.0581262 0.00100507
0.0585024 0.000365012
0.0588527 -0.000212651
0.0591644 -0.000727067
0.0594328 -0.00117315
0.0596566 -0.00155003
0.0598347 -0.00185455
0.059958 -0.00209502
0.0600182 -0.00227267
0.0546873 0.0157062
0.05467 0.0156576
0.0546633 0.0155306
0.054667 0.0153245
0.0546807 0.0150337
0.0547031 0.0146519
0.0547331 0.0141837
0.0547657 0.0136345
0.0547995 0.0130106
0.0548395 0.0123218
0.054892 0.0115822
0.0549638 0.0108032
0.0550604 0.00999449
0.0551839 0.00916337
0.0553354 0.00831852
0.0555167 0.00746982
0.0557305 0.00662829
0.0559801 0.0058065
0.0562718 0.00500463
0.0566048 0.00422515
0.0569672 0.00347024
0.0573482 0.00274175
0.0577379 0.00204289
0.0581259 0.00137958
0.0585015 0.000760929
0.0588521 0.000197442
0.0591668 -0.000306503
0.0594396 -0.000746339
0.0596669 -0.00111895
0.0598466 -0.00141993
0.0599695 -0.00165173
0.060027 -0.00181511
0.0545354 0.0158596
0.0545195 0.0158111
0.0545176 0.015686
0.0545284 0.0154823
0.0545502 0.0151957
0.0545789 0.014819
0.0546134 0.014356
0.0546503 0.0138151
0.05469 0.013204
0.0547362 0.0125319
0.054796 0.0118116
0.0548766 0.0110539
0.0549849 0.0102691
0.0551214 0.00946126
0.0552853 0.00863889
0.0554784 0.00781196
0.0557032 0.0069921
0.0559626 0.00619012
0.0562604 0.00540789
0.0565979 0.00465155
0.0569631 0.00392247
0.0573463 0.00322153
0.0577383 0.00255097
0.0581289 0.00191553
0.0585073 0.00132213
0.0588617 0.000778352
0.0591828 0.000289549
0.0594634 -0.000139647
0.0596983 -0.000504968
0.0598808 -0.000800684
0.0600053 -0.00102502
0.0600639 -0.00118119
0.0543239 0.0160664
0.0543095 0.0160185
0.0543127 0.0158959
0.0543309 0.0156949
0.0543621 0.0154125
0.0544018 0.0150454
0.0544448 0.0145923
0.0544892 0.0140643
0.0545371 0.0134701
0.0545933 0.0128195
0.0546639 0.0121235
0.0547565 0.0113922
0.0548802 0.0106383
0.055033 0.00985915
0.0552124 0.00906401
0.0554203 0.0082624
0.0556597 0.00746721
0.0559333 0.00669016
0.0562427 0.00593588
0.0565855 0.0052091
0.0569551 0.0045119
0.0573426 0.00384444
0.0577394 0.00320708
0.0581358 0.00260329
0.0585204 0.00203849
0.0588822 0.00151868
0.0592119 0.00104945
0.0595018 0.000635602
0.0597468 0.000282724
0.0599353 -5.33614e-006
0.0600632 -0.000222543
0.0601247 -0.000372347
0.054046 0.0163234
0.0540333 0.0162769
0.0540414 0.0161568
0.0540686 0.0159606
0.0541111 0.015684
0.0541636 0.0153269
0.0542204 0.0148902
0.0542768 0.0143814
0.0543371 0.0138094
0.0544079 0.0131857
0.0544952 0.0125195
0.0546055 0.0118196
0.0547472 0.0111004
0.0549178 0.010356
0.0551145 0.00959305
0.0553398 0.00881965
0.0555964 0.00805183
0.0558869 0.00730479
0.0562101 0.00658352
0.0565632 0.00589161
0.0569411 0.00523168
0.0573365 0.00460302
0.0577415 0.00400263
0.0581473 0.0034336
0.0585414 0.00290028
0.0589133 0.00240738
0.0592541 0.00196014
0.0595554 0.00156481
0.0598096 0.00122904
0.060006 0.000951915
0.0601391 0.000744327
0.0602031 0.000602766
0.0536992 0.0166315
0.0536888 0.0165873
0.053703 0.0164718
0.0537399 0.0162817
0.0537933 0.0160133
0.0538583 0.015668
0.0539306 0.0152497
0.0540054 0.0147662
0.0540835 0.0142218
0.0541741 0.0136319
0.0542836 0.0130031
0.054417 0.0123415
0.0545788 0.0116586
0.0547695 0.0109524
0.0549871 0.010226
0.0552336 0.00948365
0.0555121 0.00874647
0.0558217 0.00803313
0.0561623 0.00734803
0.0565302 0.0066939
0.0569208 0.00607512
0.0573287 0.00548963
0.0577457 0.00492865
0.0581645 0.00439689
0.0585701 0.00389802
0.058953 0.00343533
0.0593053 0.00301317
0.0596188 0.00263859
0.0598841 0.00232089
0.0600902 0.00205937
0.0602305 0.00186276
0.060299 0.0017296
0.0532802 0.016991
0.0532726 0.0169501
0.0532936 0.016841
0.053341 0.0166608
0.0534058 0.0164038
0.0534829 0.0160732
0.0535716 0.0156746
0.0536678 0.0152173
0.0537701 0.0147067
0.053885 0.014158
0.0540208 0.0135739
0.0541805 0.0129555
0.0543668 0.0123121
0.054581 0.0116456
0.0548232 0.0109587
0.0550965 0.0102539
0.0554011 0.00955255
0.0557356 0.00887568
0.0560991 0.0082281
0.0564871 0.00761232
0.0568954 0.0070367
0.0573223 0.00649404
0.0577578 0.00597502
0.0581899 0.00548234
0.0586061 0.00502112
0.0589992 0.00459273
0.0593626 0.0042004
0.0596887 0.00385158
0.0599646 0.00355192
0.060183 0.00330611
0.0603328 0.00311908
0.0604078 0.0029933
0.0527869 0.0174026
0.0527829 0.0173657
0.0528114 0.0172641
0.0528689 0.0170956
0.052946 0.0168563
0.0530354 0.0165475
0.0531404 0.0161722
0.0532574 0.0157418
0.053387 0.0152677
0.0535342 0.014764
0.0537022 0.0142276
0.0538929 0.013654
0.0541088 0.0130537
0.0543517 0.0124297
0.0546241 0.0117856
0.0549283 0.0111251
0.055264 0.0104673
0.055629 0.00983112
0.0560212 0.00922234
0.0564366 0.00864528
0.0568703 0.00811077
0.0573193 0.00760814
0.0577742 0.00712871
0.0582213 0.00667741
0.058648 0.0062561
0.0590506 0.00586488
0.0594248 0.00550565
0.059763 0.00518391
0.0600512 0.00490391
0.0602811 0.00467237
0.0604404 0.00449613
0.0605219 0.00437786
0.0522169 0.0178678
0.0522171 0.0178353
0.052253 0.0177419
0.0523198 0.0175866
0.0524094 0.0173681
0.0525162 0.0170866
0.0526417 0.0167415
0.0527826 0.0163444
0.0529409 0.0159078
0.0531211 0.015446
0.0533251 0.014955
0.0535531 0.0144303
0.0538029 0.0138769
0.0540793 0.0132996
0.0543863 0.0127026
0.0547257 0.0120922
0.0550976 0.0114843
0.0554986 0.0108934
0.0559262 0.010326
0.0563755 0.00978827
0.0568408 0.00928996
0.0573169 0.00882304
0.0577927 0.00838051
0.0582548 0.00796819
0.058693 0.00758643
0.0591052 0.00723311
0.0594893 0.0069082
0.0598388 0.00661131
0.0601378 0.00635115
0.0603759 0.00613632
0.0605432 0.0059753
0.0606309 0.00587289
0.0515712 0.0183893
0.0515765 0.0183612
0.0516213 0.0182764
0.0517002 0.0181348
0.0518059 0.0179374
0.0519327 0.0176831
0.0520796 0.0173719
0.0522474 0.0170148
0.0524371 0.016621
0.052651 0.0162009
0.0528906 0.0157536
0.0531556 0.0152773
0.0534456 0.0147743
0.0537622 0.0142486
0.0541096 0.0137047
0.0544886 0.0131486
0.0548999 0.0125925
0.0553424 0.0120477
0.0558113 0.0115215
0.0562999 0.0110217
0.0568011 0.0105553
0.057307 0.0101205
0.0578061 0.00971373
0.0582866 0.00933767
0.0587407 0.00899193
0.0591651 0.00867391
0.0595586 0.00838059
0.0599179 0.00810981
0.0602235 0.00786921
0.0604654 0.00767209
0.0606352 0.00752733
0.0607252 0.00744178
0.050853 0.0189697
0.0508645 0.0189456
0.0509197 0.0188694
0.0510128 0.0187412
0.0511369 0.0185635
0.0512858 0.0183353
0.0514578 0.0180592
0.0516546 0.0177441
0.0518776 0.0173948
0.0521272 0.0170188
0.0524046 0.016617
0.0527102 0.0161895
0.0530433 0.0157385
0.0534051 0.0152671
0.0537979 0.0147794
0.0542222 0.014279
0.054677 0.0137747
0.0551625 0.0132749
0.0556753 0.0127885
0.0562069 0.012324
0.0567464 0.0118888
0.0572843 0.0114848
0.05781 0.0111105
0.0583132 0.0107665
0.0587866 0.010452
0.059226 0.0101638
0.0596293 0.00989846
0.0599961 0.00965227
0.060306 0.00943214
0.060549 0.0092531
0.0607188 0.00912464
0.0608087 0.00905239
0.050068 0.0196118
0.0500864 0.0195906
0.0501528 0.0195223
0.0502608 0.0194066
0.0504034 0.0192471
0.050577 0.0190461
0.0507787 0.0188049
0.0510089 0.01853
0.0512667 0.0182241
0.0515536 0.0178927
0.0518722 0.0175367
0.052222 0.0171582
0.0526022 0.0167594
0.0530124 0.0163428
0.0534553 0.0159115
0.0539289 0.0154662
0.0544295 0.0150128
0.0549599 0.0145569
0.0555189 0.0141089
0.0560954 0.013679
0.0566755 0.0132748
0.0572479 0.0129006
0.057803 0.012555
0.0583316 0.0122383
0.0588267 0.01195
0.0592826 0.0116857
0.0596991 0.0114444
0.0600715 0.0112206
0.0603825 0.0110194
0.0606246 0.0108562
0.0607938 0.0107408
0.0608842 0.0106789
0.0492231 0.0203112
0.0492493 0.020292
0.0493277 0.0202306
0.0494505 0.0201264
0.0496113 0.0199849
0.0498088 0.0198111
0.0500407 0.019605
0.0503055 0.0193684
0.0506021 0.0191037
0.050932 0.0188148
0.0512967 0.0185036
0.0516958 0.0181729
0.0521279 0.0178248
0.0525923 0.0174614
0.0530885 0.0170845
0.0536139 0.0166935
0.0541627 0.01629
0.054739 0.0158773
0.0553436 0.0154688
0.0559644 0.0150743
0.0565867 0.0147028
0.0571959 0.014356
0.0577823 0.0140345
0.0583368 0.0137396
0.0588523 0.013471
0.0593252 0.013227
0.0597529 0.0130038
0.0601301 0.0127988
0.0604444 0.0126167
0.0606873 0.0124679
0.0608562 0.0123634
0.0609449 0.0123097
0.0483216 0.0210581
0.0483561 0.0210403
0.0484463 0.0209859
0.0485862 0.0208953
0.0487683 0.0207726
0.0489918 0.0206253
0.0492553 0.0204524
0.0495562 0.020252
0.0498937 0.020026
0.0502691 0.0197772
0.0506829 0.0195084
0.0511346 0.019223
0.0516225 0.0189229
0.0521442 0.0186086
0.0526967 0.0182816
0.0532761 0.017944
0.0538789 0.0175951
0.054506 0.0172282
0.0551559 0.0168587
0.0558214 0.0164998
0.0564856 0.0161597
0.0571306 0.015839
0.0577462 0.0155389
0.0583253 0.0152618
0.0588618 0.0150093
0.0593516 0.0147803
0.0597904 0.0145721
0.0601726 0.0143822
0.0604916 0.0142158
0.0607386 0.0140796
0.06091 0.0139838
0.0609988 0.0139362
0.0473725 0.0218436
0.0474162 0.021827
0.0475187 0.0217804
0.0476763 0.0217052
0.0478839 0.0216047
0.0481374 0.0214837
0.0484336 0.0213401
0.0487708 0.0211728
0.0491497 0.0209829
0.0495712 0.0207719
0.0500357 0.0205427
0.0505418 0.0202996
0.0510872 0.0200445
0.0516686 0.0197757
0.0522803 0.0194934
0.0529164 0.019204
0.0535742 0.0189076
0.0542569 0.0185922
0.0549581 0.0182673
0.0556706 0.0179459
0.0563748 0.0176344
0.0570534 0.0173365
0.0576966 0.0170544
0.0582992 0.0167925
0.0588563 0.0165533
0.0593639 0.0163368
0.0598163 0.0161411
0.0602066 0.0159636
0.0605328 0.0158085
0.0607859 0.0156835
0.0609598 0.0155956
0.0610493 0.0155534
0.0463898 0.0226575
0.0464437 0.0226419
0.046559 0.0226031
0.0467346 0.0225428
0.0469684 0.0224642
0.047254 0.0223701
0.0475841 0.0222558
0.0479576 0.0221209
0.0483773 0.0219662
0.0488449 0.0217917
0.0493598 0.0215994
0.0499204 0.021395
0.0505233 0.0211813
0.0511653 0.0209557
0.051838 0.0207153
0.0525341 0.0204688
0.0532506 0.0202196
0.0539895 0.0199535
0.0547438 0.0196749
0.0555043 0.0193919
0.0562504 0.0191096
0.0569629 0.0188336
0.0576335 0.0185676
0.0582592 0.0183189
0.0588368 0.018092
0.0593627 0.017887
0.0598318 0.0177019
0.0602349 0.0175345
0.0605697 0.0173884
0.0608301 0.0172724
0.0610088 0.017193
0.0610993 0.0171569
0.0453898 0.0234885
0.0454541 0.0234734
0.0455827 0.0234416
0.0457754 0.0233947
0.0460347 0.0233354
0.0463516 0.0232678
0.0467159 0.0231861
0.0471246 0.0230862
0.0475844 0.022968
0.0480973 0.0228305
0.0486627 0.0226749
0.0492763 0.0225054
0.0499349 0.0223295
0.0506344 0.0221445
0.0513683 0.0219472
0.0521276 0.0217418
0.0529072 0.0215338
0.0537048 0.0213109
0.0545115 0.0210718
0.0553171 0.0208231
0.0561047 0.0205696
0.0568547 0.0203159
0.0575552 0.0200659
0.0582061 0.0198303
0.0588051 0.0196158
0.0593492 0.0194224
0.0598352 0.0192471
0.0602542 0.0190876
0.0606019 0.0189501
0.0608729 0.0188427
0.0610588 0.0187712
0.0611528 0.0187398
0.0443896 0.0243246
0.0444648 0.0243095
0.0446069 0.0242838
0.0448171 0.0242494
0.0450975 0.02421
0.0454394 0.0241699
0.0458339 0.0241216
0.0462789 0.0240589
0.0467793 0.0239791
0.0473375 0.0238803
0.0479528 0.0237626
0.0486213 0.0236297
0.0493339 0.0234881
0.0500883 0.0233399
0.0508812 0.023182
0.0517037 0.0230148
0.0525465 0.0228433
0.0534023 0.0226568
0.0542603 0.0224518
0.0551104 0.0222336
0.0559377 0.0220059
0.0567259 0.0217729
0.0574626 0.0215403
0.0581432 0.0213187
0.0587661 0.0211179
0.0593292 0.0209368
0.0598333 0.0207707
0.0602707 0.0206191
0.0606332 0.0204904
0.0609164 0.0203922
0.0611114 0.0203287
0.0612103 0.0203018
0.0434062 0.0251535
0.043492 0.025138
0.0436471 0.0251191
0.0438727 0.0250979
0.0441707 0.0250817
0.0445334 0.0250704
0.0449552 0.0250554
0.0454353 0.0250296
0.0459754 0.0249892
0.0465769 0.0249306
0.0472397 0.0248522
0.0479606 0.0247565
0.0487284 0.0246488
0.0495382 0.0245322
0.0503892 0.0244078
0.0512732 0.0242735
0.0521763 0.0241322
0.0530881 0.0239783
0.0539968 0.023807
0.0548922 0.0236187
0.0557612 0.0234158
0.056589 0.0232032
0.0573639 0.0229884
0.0580786 0.0227823
0.0587288 0.0225949
0.0593148 0.022425
0.0598377 0.0222675
0.0602902 0.0221255
0.0606666 0.0220078
0.0609616 0.021921
0.0611644 0.0218683
0.0612653 0.0218471
0.0424557 0.0259605
0.0425521 0.0259446
0.0427205 0.0259338
0.0429611 0.0259304
0.0432738 0.0259378
0.0436549 0.0259547
0.0441009 0.0259728
0.0446129 0.0259843
0.0451905 0.0259844
0.0458335 0.0259674
0.0465413 0.0259294
0.0473122 0.0258703
0.0481347 0.0257948
0.0490004 0.0257066
0.0499067 0.0256088
0.0508481 0.0255053
0.0518067 0.0253937
0.0527711 0.025272
0.0537296 0.0251326
0.0546713 0.0249729
0.0555839 0.0247942
0.0564525 0.024602
0.0572659 0.0244056
0.0580161 0.0242163
0.058697 0.0240415
0.0593085 0.0238812
0.0598498 0.0237349
0.0603179 0.0236064
0.0607089 0.0235008
0.061015 0.0234281
0.061224 0.0233879
0.0613258 0.0233764
0.0415545 0.0267277
0.0416609 0.0267112
0.0418414 0.0267091
0.0420957 0.026724
0.0424229 0.0267566
0.0428216 0.0268034
0.0432897 0.0268565
0.0438311 0.0269065
0.0444438 0.0269487
0.0451262 0.0269742
0.045877 0.026978
0.0466935 0.0269562
0.047566 0.0269123
0.0484852 0.0268513
0.0494444 0.0267814
0.0504373 0.0267069
0.0514463 0.0266246
0.05246 0.0265322
0.0534669 0.0264213
0.054455 0.0262883
0.0554133 0.0261319
0.056324 0.0259592
0.0571756 0.0257813
0.0579612 0.0256088
0.0586748 0.0254468
0.059314 0.0252975
0.0598775 0.0251635
0.0603654 0.0250511
0.0607726 0.024961
0.0610881 0.0249031
0.0613024 0.0248757
0.0614061 0.0248748
0.0407198 0.0274342
0.0408352 0.0274175
0.0410261 0.027424
0.0412922 0.0274577
0.0416337 0.0275176
0.0420506 0.0275968
0.0425414 0.0276872
0.0431078 0.0277792
0.0437491 0.0278661
0.0444641 0.0279375
0.0452512 0.0279847
0.0461076 0.0280014
0.0470252 0.027991
0.0479929 0.0279592
0.049001 0.027917
0.0500403 0.0278706
0.0510972 0.0278156
0.0521599 0.027747
0.0532156 0.0276598
0.0542514 0.0275504
0.0552549 0.0274149
0.0562081 0.0272612
0.0570977 0.0271009
0.057919 0.0269452
0.0586665 0.0267981
0.0593363 0.0266626
0.059926 0.0265431
0.0604357 0.0264475
0.0608582 0.0263758
0.0611833 0.0263317
0.0614031 0.0263158
0.0615105 0.0263261
0.0399721 0.0280557
0.0400937 0.0280412
0.040291 0.0280585
0.0405659 0.0281133
0.0409191 0.0282024
0.0413528 0.0283173
0.0418626 0.0284476
0.0424486 0.0285857
0.0431108 0.0287212
0.0438501 0.0288417
0.0446668 0.0289342
0.0455578 0.0289897
0.0465138 0.0290145
0.047524 0.0290136
0.0485763 0.0289987
0.0496607 0.0289767
0.0507645 0.0289445
0.0518753 0.0288954
0.0529796 0.0288278
0.0540629 0.0287385
0.0551092 0.0286239
0.0561026 0.0284902
0.0570313 0.0283485
0.0578901 0.0282103
0.0586732 0.0280806
0.0593758 0.0279629
0.0599936 0.0278613
0.0605247 0.0277815
0.0609618 0.027725
0.0612965 0.0276933
0.0615219 0.0276878
0.061633 0.0277083
0.039318 0.028574
0.0394456 0.0285656
0.0396484 0.0285984
0.0399313 0.0286766
0.0402949 0.0287969
0.0407391 0.0289491
0.0412607 0.0291241
0.0418588 0.0293112
0.042535 0.0294977
0.0432912 0.0296686
0.0441306 0.0298057
0.0450519 0.0298993
0.046042 0.029958
0.0470887 0.0299878
0.0481808 0.0299992
0.0493066 0.029999
0.0504531 0.0299865
0.0516092 0.0299563
0.0527589 0.0299057
0.0538865 0.0298339
0.0549747 0.0297383
0.0560078 0.0296249
0.0569761 0.0295037
0.0578729 0.0293853
0.0586928 0.0292756
0.0594297 0.0291783
0.060077 0.029096
0.0606296 0.0290321
0.0610811 0.0289886
0.0614247 0.0289676
0.0616554 0.028971
0.061769 0.029
0.0387714 0.0289855
0.0389043 0.0289856
0.0391137 0.0290375
0.0394019 0.029141
0.0397695 0.0292938
0.0402158 0.0294866
0.0407403 0.0297081
0.0413439 0.029945
0.0420283 0.0301819
0.0427974 0.0304013
0.0436553 0.0305803
0.0445989 0.0307111
0.0456158 0.0308013
0.046693 0.0308606
0.0478209 0.0308984
0.0489848 0.0309202
0.050171 0.0309262
0.0513667 0.0309135
0.0525567 0.0308798
0.0537244 0.0308243
0.0548525 0.0307457
0.0559247 0.0306508
0.0569308 0.0305501
0.0578653 0.0304526
0.058722 0.0303644
0.0594934 0.0302885
0.0601703 0.0302261
0.0607449 0.0301781
0.0612112 0.0301465
0.0615641 0.0301347
0.0618005 0.0301462
0.0619177 0.0301835
0.0383431 0.0292889
0.0384766 0.0293003
0.0386878 0.0293727
0.038975 0.0295048
0.0393388 0.0296932
0.0397804 0.0299278
0.0403017 0.0301958
0.0409047 0.0304807
0.041593 0.0307646
0.0423703 0.0310279
0.0432422 0.0312466
0.0442035 0.0314135
0.0452423 0.0315343
0.0463459 0.0316218
0.0475031 0.0316854
0.0486998 0.0317293
0.0499208 0.0317543
0.0511512 0.0317587
0.0523754 0.0317405
0.0535774 0.0316986
0.0547405 0.0316344
0.0558489 0.0315551
0.0568927 0.031473
0.0578643 0.0313958
0.058757 0.0313292
0.0595627 0.0312751
0.0602687 0.0312329
0.0608652 0.0312005
0.0613464 0.0311795
0.0617088 0.0311754
0.0619513 0.0311936
0.062073 0.0312387
0.0380331 0.0294927
0.0381575 0.0295188
0.0383618 0.0296127
0.0386416 0.0297744
0.0389963 0.0299995
0.039428 0.0302756
0.0399419 0.0305886
0.040541 0.0309181
0.0412291 0.0312441
0.042012 0.0315458
0.042894 0.031801
0.0438683 0.0320013
0.0449241 0.0321517
0.0460484 0.0322654
0.0472304 0.0323536
0.0484551 0.0324193
0.0497054 0.0324631
0.0509653 0.0324844
0.052219 0.0324808
0.0534504 0.0324506
0.0546435 0.0323967
0.0557842 0.0323287
0.0568619 0.0322601
0.0578682 0.0322002
0.0587947 0.0321536
0.0596313 0.0321198
0.0603652 0.0320979
0.0609834 0.0320804
0.0614795 0.0320684
0.0618514 0.0320702
0.062101 0.0320941
0.0622277 0.0321458
0.0378065 0.0296168
0.0379224 0.0296569
0.0381189 0.029771
0.0383895 0.0299613
0.0387338 0.0302235
0.0391527 0.030539
0.0396562 0.0308932
0.0402484 0.0312621
0.0409345 0.0316239
0.0417206 0.0319587
0.0426087 0.0322451
0.0435932 0.0324751
0.044663 0.0326521
0.0458044 0.0327893
0.0470064 0.0328992
0.0482544 0.032984
0.0495286 0.0330455
0.0508127 0.033083
0.0520911 0.0330936
0.0533479 0.0330735
0.0545675 0.0330247
0.0557359 0.0329618
0.0568422 0.0329013
0.0578775 0.0328545
0.0588313 0.0328233
0.0596929 0.0328065
0.0604497 0.0328007
0.0610881 0.0327979
0.0616001 0.0327939
0.0619843 0.0328013
0.0622425 0.0328299
0.062375 0.0328873
0.0376409 0.0296793
0.0377508 0.0297317
0.0379414 0.0298643
0.0382037 0.0300831
0.0385354 0.0303786
0.0389441 0.0307301
0.0394375 0.031118
0.0400224 0.0315199
0.0407045 0.031913
0.0414903 0.0322754
0.0423833 0.0325859
0.0433768 0.0328372
0.0444599 0.0330353
0.0456175 0.0331917
0.0468364 0.0333177
0.0481009 0.0334178
0.0493932 0.0334944
0.0506961 0.0335464
0.0519939 0.0335702
0.0532723 0.0335591
0.0545161 0.0335104
0.0557093 0.0334469
0.0568375 0.0333891
0.0578947 0.0333506
0.0588691 0.0333302
0.0597491 0.0333249
0.0605226 0.0333301
0.0611777 0.0333376
0.0617055 0.0333407
0.0621025 0.033353
0.0623714 0.0333877
0.062511 0.0334507
0.0375159 0.0296974
0.037626 0.0297601
0.037813 0.0299082
0.0380691 0.0301494
0.0383927 0.0304711
0.038793 0.0308504
0.0392786 0.0312655
0.039857 0.0316939
0.0405348 0.0321131
0.0413193 0.0324987
0.0422159 0.0328253
0.0432183 0.0330899
0.0443129 0.0332999
0.045484 0.0334679
0.0467164 0.0336041
0.0479943 0.0337147
0.0493006 0.0338024
0.0506178 0.0338663
0.0519308 0.0339015
0.0532252 0.0338964
0.0544896 0.0338452
0.0557035 0.0337778
0.0568502 0.03372
0.0579222 0.033684
0.0589105 0.0336689
0.0598039 0.0336701
0.0605905 0.0336813
0.0612583 0.0336934
0.0617976 0.0337018
0.062205 0.0337197
0.0624851 0.0337617
0.0626363 0.033834
0.0374113 0.0296777
0.0375411 0.0297519
0.0377302 0.0299093
0.037983 0.0301642
0.0383017 0.0305035
0.0386963 0.0309018
0.0391764 0.0313359
0.0397498 0.0317836
0.0404238 0.0322218
0.0412069 0.0326245
0.04211 0.0329616
0.043118 0.0332307
0.0442211 0.0334433
0.0454021 0.0336146
0.0466452 0.0337546
0.0479341 0.0338701
0.0492512 0.0339636
0.0505793 0.0340348
0.0519031 0.0340783
0.0532098 0.0340798
0.0544886 0.0340218
0.0557163 0.0339458
0.0568746 0.0338839
0.0579569 0.0338476
0.0589549 0.033835
0.0598579 0.0338405
0.0606537 0.0338553
0.0613301 0.0338696
0.0618761 0.0338785
0.0622891 0.0338995
0.0625769 0.0339478
0.0627531 0.0340486
