#t	x	y
0	70.7170003187	2.59707754173
1	71.6829714041	2.33842746535
2	70.6848359391	2.39946510433
3	70.9864138052	3.35290665507
4	69.9909608181	3.44816079123
5	69.8912693197	4.44317918561
6	70.8892546779	4.50662384493
7	71.339976126	3.61395919553
8	72.2558549	3.21250425255
9	73.1503119099	3.6596582054
10	72.5340804041	2.87209314056
11	73.5332973848	2.91165860028
12	73.5481062743	3.91154894266
13	72.7034582454	3.37622688329
14	72.1737396308	4.22440032621
15	73.1720310812	4.28283131164
16	74.1277680963	4.57705360484
17	75.0855620336	4.28959791487
18	75.3257921328	3.31888194227
19	76.2258960574	3.75455719391
20	77.2246851999	3.80375321724
21	78.1955588336	4.04334534441
22	79.1942246436	4.09498447601
23	80.1928904536	4.14662360762
24	79.5967968992	4.94953859337
25	79.0195204218	5.76608734801
26	79.5642953608	6.60466964325
27	80.5608676958	6.6873955823
28	81.5574400309	6.77012152135
29	82.554012366	6.85284746041
30	81.6310344289	7.2377003254
31	81.1757893175	8.1280664796
32	81.4053530592	9.10136010872
33	82.3991610965	9.21247079722
34	81.598359522	9.81140054135
35	80.9527450484	9.04773703469
36	80.5156505508	8.14832144654
37	79.9628576214	7.31500279372
38	78.9754909536	7.47345487948
39	79.8171368808	8.01348463175
40	80.8121347803	8.11338047728
41	81.8071326798	8.21327632281
42	81.6994626901	7.21908963345
43	80.7557798078	7.54994098612
44	81.7514379635	7.64302609205
45	81.3222926925	8.54626157431
46	82.3168159301	8.65077726673
47	81.3281243384	8.80074038439
48	82.3223202631	8.9083250643
49	81.4186388369	8.48011964633
50	80.9598198899	9.36864942853
51	80.9004158426	10.3668834488
52	81.1370758054	11.3384759878
53	82.1274522392	11.4768758414
54	83.1178286729	11.615275695
55	84.1082051066	11.7536755486
56	85.0697851192	12.0282003736
57	84.133586525	12.379671841
58	83.2068649101	12.7554204915
59	84.1953179416	12.9069480615
60	84.980828735	12.2881001049
61	84.3256388188	11.5326358941
62	84.6482920346	12.479153143
63	83.6510897875	12.5539039175
64	84.594084094	12.2210950567
65	84.3900370049	13.2000561312
66	85.3780238244	13.3545942964
67	86.3187155466	13.6938568553
68	86.8003043951	12.8174595818
69	86.4479057031	11.8816096142
70	87.3270894937	11.4051268104
71	86.8207440037	12.2674575154
72	87.8109086955	12.4073642097
73	88.8010733873	12.547270904
74	89.7912380791	12.6871775983
75	88.9001941877	12.2332604434
76	89.3475557758	13.1276136228
77	90.3369336047	13.2729804406
78	89.5685070574	13.9129184387
79	90.5566569485	14.0664104337
80	91.2352764593	14.8009004334
81	91.8891980357	15.5574627718
82	92.1204369031	16.5303597788
83	91.7455956612	17.4574487947
84	92.7279694452	17.6443759154
85	92.2149546389	18.5027556731
86	92.3679297152	17.514525626
87	93.3504231128	17.7008230329
88	92.6659970086	18.4299052697
89	93.646787367	18.6249700613
90	92.9517772859	19.3439700524
91	93.8120180914	19.8538580369
92	94.7903487692	20.060906545
93	95.7686794471	20.2679550532
94	96.747010125	20.4750035613
95	97.4438128152	21.1922664217
96	97.0569336435	20.2701360044
97	96.1000352951	19.9797129494
98	95.2974075365	19.3832327058
99	96.2773427745	19.5825488598
