#t	x	y
0	66.1083515992	17.1921519505
1	66.7063445212	16.3906505685
2	66.634339537	15.3932462963
3	65.8352406432	14.7920466973
4	66.5741413565	15.4658610159
5	67.4608984675	15.9280966982
6	66.5150401766	15.603516826
7	65.9707655974	16.4424239618
8	66.0722757695	15.4475894605
9	65.0916624704	15.6435424084
10	64.2884858341	16.2392833679
11	63.3189394117	15.9943757629
12	64.1624044429	16.531559848
13	65.0799862833	16.1340129123
14	64.6004077595	17.0115118806
15	65.5700194251	16.7668627077
16	65.2156738739	17.7019772624
17	65.7665829751	18.5365425158
18	65.9360731531	17.5510106393
19	66.0954524997	16.5637932246
20	66.3208212231	17.5380667686
21	66.3387300757	16.5382271449
22	66.023305594	15.5892764632
23	66.903855182	15.1153224326
24	65.9284392463	14.8949505821
25	66.6367528934	15.6008484341
26	65.7484551767	15.141580357
27	64.8115456119	15.4911521914
28	64.6164562088	16.4719376546
29	64.6005825812	17.4718116606
30	63.6352651003	17.2107328198
31	62.988132189	16.4483556198
32	63.503769901	15.5915489029
33	62.5326126944	15.3531088055
34	63.2693759069	14.676957958
35	62.5034063969	15.3198348589
36	63.4760482432	15.5521446498
37	62.5047756481	15.314175017
38	61.7846722067	14.6203082909
39	62.5551251632	15.2578051472
40	62.8875476806	16.2009357161
41	63.4565350496	15.3785894545
42	62.4846680685	15.143059051
43	61.5712388021	14.7360615384
44	61.9608225698	15.6570525742
45	60.9912974681	15.4120605799
46	60.0217723665	15.1670685856
47	61.0193163337	15.2371116685
48	60.2487830916	15.8745114825
49	59.8737609121	14.947495644
50	60.8659412569	15.0723081569
51	61.8213519997	14.7770280993
52	61.210519216	13.9852684702
53	61.4003075593	13.0034434426
54	61.4055647504	12.0034572618
55	60.4239332503	11.8126704751
56	60.5483674362	10.8204426115
57	60.1531945061	11.7390493583
58	59.3884504406	11.0947151948
59	58.9361053408	10.2028722094
60	58.0107969967	9.82365661314
61	58.3874729934	8.89731154055
62	57.439750507	8.57821580475
63	56.8149952967	9.35903648023
64	56.8521622162	8.35972740887
65	57.5469924818	7.64055364544
66	58.3350721404	8.25612691613
67	58.1614432729	7.27131575842
68	57.1691677803	7.14726195198
69	57.7268631842	7.97730763536
70	56.7362768849	7.84041795847
71	57.0643023605	8.78508683558
72	56.0759461908	8.63292875397
73	55.766006617	7.68217249676
74	55.7856224183	8.68198008842
75	56.1500672726	7.75075511659
76	55.1594602812	7.61401525892
77	56.0883737615	7.98431209419
78	55.099922408	7.83277357815
79	55.3080929211	6.85468102757
80	54.5389906122	6.21555534469
81	53.545422081	6.10232295581
82	54.4637929995	5.70660227626
83	53.4692374169	5.60239482323
84	54.0563361292	6.41191017329
85	54.1393687804	7.40845700051
86	55.0209655975	7.88046023371
87	55.32059906	8.83451462847
88	55.8561489227	9.67901823683
89	54.8708328463	9.50827799683
90	53.8855167699	9.33753775682
91	54.6820298773	9.94215901815
92	53.7177105245	9.67741728415
93	54.1454486814	8.77351459632
94	54.5699871676	9.678924489
95	53.7003073387	10.1725407319
96	54.6709834207	10.4129319626
97	53.6886429101	10.2258300621
98	52.7063023994	10.0387281616
99	52.1852809443	10.8922717418
