#t	x	y
0	59.75333667	32.0888982073
1	59.7374805444	33.088772491
2	58.8627102828	32.6042345777
3	59.1703862327	33.5557257809
4	58.3005270351	33.0624256935
5	57.4306678375	32.569125606
6	56.5608086398	32.0758255185
7	56.6653629902	31.0813063444
8	55.7885946335	30.6003934118
9	55.481271636	31.5519986741
10	54.6120072666	31.0576511687
11	53.7427428972	30.5633036633
12	52.8734785278	30.0689561579
13	52.0042141584	29.5746086524
14	52.7395189705	30.252345204
15	51.872095165	29.7547751671
16	51.0046713595	29.2572051301
17	50.137247554	28.7596350932
18	49.2698237485	28.2620650562
19	48.402399943	27.7644950193
20	49.3976579776	27.6672250618
21	48.8397504642	28.4971281926
22	49.6756087665	27.9481829325
23	50.6044063845	27.5775955814
24	49.726329916	27.0990752417
25	48.8482534476	26.6205549019
26	47.9701769791	26.1420345621
27	48.4883204567	26.9973282758
28	47.6146177326	26.5108680513
29	46.7409150086	26.0244078268
30	45.8672122846	25.5379476023
31	44.9935095606	25.0514873778
32	45.1221764199	26.0431752517
33	44.25608349	25.5432922286
34	43.3899905601	25.0434092055
35	42.5065015461	24.5749573274
36	41.6407745352	24.0744408516
37	40.7750475242	23.5739243758
38	40.4361404465	22.6331045245
39	39.5635320189	22.1446840785
40	40.4235941096	22.6548734552
41	39.551250617	22.1659799792
42	38.6789071243	21.6770865032
43	37.8065636317	21.1881930273
44	36.934220139	20.6992995513
45	36.0618766464	20.2104060753
46	35.1895331538	19.7215125994
47	34.3171896611	19.2326191234
48	33.4448461685	18.7437256474
49	32.5725026758	18.2548321715
50	31.7001591832	17.7659386955
51	31.0629182459	18.5366033358
52	30.2041941708	18.024165083
53	31.1671068665	18.2939782414
54	30.6258505222	19.1348358808
55	29.7777735625	18.6049628107
56	28.9296966027	18.0750897407
57	29.7840746792	17.5554378357
58	28.9225881957	17.0476573332
59	28.0611017122	16.5398768307
60	28.1302118097	17.5374858696
61	27.2816188904	17.0084395036
62	26.4330259711	16.4793931377
63	25.5844330518	15.9503467717
64	24.7358401325	15.4213004058
65	23.8872472132	14.8922540398
66	23.0386542939	14.3632076739
67	23.5829729432	13.524329132
68	22.7154968761	13.0268502147
69	21.8480208091	12.5293712975
70	20.980544742	12.0318923803
71	20.3470380002	11.2581552104
72	20.5687054165	10.2830328814
73	19.6742552691	9.83586520161
74	18.7798051217	9.38869752186
75	17.9785148529	8.79042174496
76	17.0801487425	8.35117428448
77	16.181782632	7.91192682399
78	15.2834165215	7.4726793635
79	14.385050411	7.03343190302
80	13.4866843006	6.59418444253
81	12.5883181901	6.15493698204
82	13.4176708746	5.59621153544
83	12.4947286977	5.21127291941
84	11.5717865208	4.82633430338
85	10.7491558041	4.2577582716
86	9.81943458229	3.88949416839
87	8.88971336048	3.52123006518
88	7.95999213866	3.15296596197
89	7.03027091685	2.78470185876
90	7.70170653841	3.5257647482
91	6.79245470943	3.10951829297
92	7.36722464114	2.29120324019
93	6.41233764105	1.99423385278
94	5.45745064096	1.69726446536
95	4.50256364088	1.40029507795
96	3.54767664079	1.10332569054
97	2.5927896407	0.806356303122
98	1.63790264061	0.509386915708
99	0.683015640519	0.212417528294
