#t	x	y
0	76.1413785285	71.5539079238
1	76.8700968801	72.2387214488
2	77.5988152317	72.9235349739
3	78.3275335833	73.6083484989
4	79.0562519349	74.293162024
5	79.7849702864	74.977975549
6	78.9460331668	74.4337471876
7	79.67362756	75.119754767
8	80.4012219532	75.8057623464
9	81.1288163464	76.4917699258
10	81.4725644017	75.5527080139
11	82.2058082331	76.2326738098
12	82.5034588923	77.1873486681
13	83.2337007483	77.8705373915
14	83.9639426043	78.5537261148
15	84.6941844604	79.2369148382
16	85.4244263164	79.9201035615
17	86.1546681724	80.6032922849
18	86.8849100284	81.2864810083
19	87.6151518844	81.9696697316
20	88.3453937405	82.652858455
21	89.0756355965	83.3360471783
22	89.8058774525	84.0192359017
23	90.5361193085	84.702424625
24	91.2663611646	85.3856133484
25	91.9966030206	86.0688020717
26	91.7433914346	85.1013911493
27	92.47653907	85.781460664
28	91.6225669086	85.2611419659
29	92.3546307221	85.9423780285
30	93.2405861079	85.4786075526
31	93.9777084675	86.1543668493
32	94.714830827	86.830126146
33	95.4519531866	87.5058854426
34	96.1890755461	88.1816447393
35	96.9261979057	88.857404036
36	97.3399963444	89.7677725614
37	98.0751178846	90.4457078984
38	98.8102394248	91.1236432354
39	98.1801112079	90.3471521342
40	98.9159621109	91.0242957294
41	99.6518130139	91.7014393246
42	100.0	92.3785829198
