#t	x	y
0	4.67359200024	53.866468093
1	4.7600298171	54.8627253408
2	4.84646763395	55.8589825886
3	3.95882454294	56.3195146103
4	2.99116290962	56.571766396
5	3.04396293239	57.570371502
6	2.05894913441	57.742847059
7	2.09458370343	58.7422119461
8	1.27933161136	59.3213181767
9	2.02146248236	58.6510631728
10	2.00087878085	57.6512750396
11	2.03556448019	58.6506733097
12	2.07025017952	59.6500715798
13	1.2288165221	60.1904320152
14	0.232635688487	60.2777460847
15	0.236495055685	61.2777386374
16	0.0275697255352	62.2556702333
17	0.0280125723108	63.2556701353
18	0.0284554190865	64.2556700372
19	0.0288982658622	65.2556699392
20	0.0293411126379	66.2556698411
21	0.664251144729	65.483083761
22	0.674394481514	66.4830323161
23	0.6845378183	67.4829808711
24	0.694681155086	68.4829294261
25	0.704824491871	69.4828779812
26	1.58917890067	69.0160618721
27	1.61219901698	70.0157968742
28	1.63521913328	71.0155318762
29	2.20277669834	70.1921981587
30	2.23414332983	71.1917061048
31	2.26550996133	72.191214051
32	2.29687659283	73.1907219971
33	3.29675349284	73.175031719
34	3.34176082215	74.1740183758
35	3.38676815146	75.1730050325
36	4.09233192028	74.4643585987
37	4.14720603726	75.4628518792
38	5.10204138274	75.1657164505
39	5.16976279502	76.1634207205
40	5.2374842073	77.1611249905
41	5.30520561959	78.1588292604
42	5.37292703187	79.1565335304
43	5.44064844415	80.1542378004
44	5.50836985643	81.1519420703
45	5.57609126871	82.1496463403
46	5.64381268099	83.1473506103
47	6.46697813353	82.5795490272
48	6.54505119958	83.5764966669
49	6.62312426564	84.5734443066
50	7.55239355275	84.2040412855
51	7.64172652995	85.2000431024
52	7.73105950715	86.1960449192
53	7.82039248435	87.1920467361
54	7.90972546155	88.1880485529
55	7.99905843874	89.1840503698
56	8.08839141594	90.1800521866
57	8.17772439314	91.1760540035
58	8.26705737034	92.1720558204
59	8.35639034754	93.1680576372
60	7.50824354081	93.6978188988
61	7.08788734236	92.7904597271
62	6.52530598912	91.9637177958
63	6.59608326538	92.9612099397
64	6.66686054165	93.9587020836
65	6.73763781791	94.9561942275
66	6.80841509418	95.9536863714
67	6.87919237044	96.9511785153
68	6.94996964671	97.9486706593
69	7.02074692297	98.9461628032
70	7.09152419924	99.9436549471
71	7.1623014755	100.0
