#t	x	y
0	90.6116149067	48.8903067879
1	91.4916825388	49.3651551456
2	92.371750171	49.8400035034
3	93.2518178031	50.3148518611
4	94.1318854353	50.7897002188
5	94.1061808606	49.790030636
6	93.4404893523	49.0438035823
7	94.3259358181	49.5085449685
8	93.7142046167	50.2996106657
9	92.7698335911	49.9707286719
10	93.6502343991	50.4449590138
11	94.5306352072	50.9191893557
12	95.4110360152	51.3934196976
13	96.2914368233	51.8676500395
14	97.1718376313	52.3418803814
15	96.5408614237	51.5660781995
16	97.2655182602	50.8769682886
17	98.1516178938	51.3404630991
18	99.0377175274	51.8039579097
19	99.8744257531	52.3516068346
20	100.0	52.8158673291
