#t	x	y
0	77.3166617206	56.9688928093
1	76.3312123684	57.1388621429
2	76.0517376046	56.178709105
3	75.6430916503	55.2660161204
4	75.4570313523	54.2834777926
5	76.4305781159	54.5119656462
6	75.616435224	53.9313010686
7	76.5967353009	53.7337871215
8	76.4465778188	52.7451250303
9	75.6234825358	52.1772217329
10	75.7392289335	53.1705005314
11	74.9207747113	52.59592879
12	75.4837235197	53.4224205558
13	74.7992824467	54.1514887403
14	75.7538660226	53.8535454627
15	74.7772438454	53.6385823891
16	74.9276650818	54.6272043854
17	73.9276684027	54.6297815531
18	73.1234277438	54.0354777903
19	73.0201336709	53.0408269297
20	72.3809429954	52.2717786344
21	73.1913614188	52.8576301335
22	73.1475829237	53.8566713956
23	72.1488761468	53.9075120663
24	71.3895105606	53.2568478623
25	71.2273528689	52.2700830053
26	70.7499037384	51.391423613
27	70.100306826	52.1517024115
28	69.8394775245	53.1170873479
29	70.5648807402	53.8054115265
30	69.5804248026	53.9810432635
31	70.1907462171	54.7731971444
32	69.4023769164	54.1579948641
33	69.9403351576	53.3150233754
34	69.0740528109	52.8154686781
35	68.2796624272	52.2080611391
36	68.420779961	53.1980539884
37	69.4042304958	53.0168771533
38	69.6512175224	53.9858959399
39	69.7573436064	54.9802486209
40	70.6842148857	55.3556279379
41	69.8969129022	54.7390603529
42	70.6405011325	55.4076981799
43	69.7852439798	54.8894943564
44	69.6978860505	53.8933173681
45	70.4193499118	53.2008652782
46	70.367083074	54.1994984329
47	69.4126847633	53.9009622298
48	68.5975389767	54.4802180858
49	67.708795139	54.9386222643
50	67.5674009827	53.9486688853
51	67.9775103445	54.8607052395
52	68.9721441123	54.964163772
53	69.2860358861	54.0147050029
54	69.3684846659	53.0181096995
55	70.1471946462	52.3907256332
56	71.1331185263	52.5579204375
57	70.9104130237	53.5328062047
58	70.1123078371	52.9302880629
59	70.9507683891	52.3853257682
60	70.3018963229	53.146223292
61	71.0403140915	53.820566824
62	71.7847601048	53.152884165
63	70.7888162116	53.0629077146
64	69.9886604986	52.4631153882
65	69.687102411	51.5096675817
66	70.532325785	50.9752544006
67	70.7109300725	49.9913334137
68	70.2300206495	50.8681036954
69	70.5641404202	51.8106343202
70	71.4129445579	52.3393417402
71	70.6050953445	51.7499525238
72	71.1003476581	50.8812033391
73	70.341391951	51.5323455929
74	69.6346497018	52.2398167182
75	68.81908708	52.818485544
76	68.9085136561	51.8224921266
77	69.1838905153	50.8611557727
78	68.1842228202	50.8869336578
79	68.7601948965	50.06946429
80	69.7286959672	50.3184736798
81	68.9345859176	49.7106996847
82	68.566264945	50.6403983784
83	67.6579997498	50.2220034273
84	68.622672035	49.9585506189
85	68.5994286403	48.9588207831
86	69.2605236056	48.2085185461
87	68.4397700068	47.6372361903
88	67.619016408	47.0659538345
89	66.655147644	47.3323313966
90	67.6550553995	47.3187490403
91	66.660328155	47.4213049231
92	67.6356761268	47.2006324646
93	68.631977805	47.2865566525
94	68.7611414303	46.2949333582
95	67.9712903747	46.9082320701
96	67.3530840312	47.6942479204
97	67.3348114076	46.6944148787
98	67.6210108165	47.6525849567
99	66.8353512817	47.0339258458
