#t	x	y
0	68.7942819014	5.28091457769
1	67.7972152886	5.2043758965
2	67.5259620616	4.24186787741
3	67.5894367947	3.24388443152
4	68.3395608532	2.5825872994
5	67.3402741508	2.54482373882
6	66.8589249508	3.42135265887
7	66.8110454573	2.42249953949
8	66.2051462116	1.62695814893
9	67.0356772132	2.18393054975
10	67.9686617073	2.5438471148
11	68.9487002156	2.74265486677
12	68.2986884127	3.50257897877
13	67.305241589	3.38828370953
14	67.5968703939	4.34481527729
15	67.6780678126	3.34811723917
16	67.9778568675	4.30212275415
17	68.2558522573	5.26270516248
18	68.2701878134	6.26260240312
19	69.2466601994	6.47824488329
20	69.2065188341	5.47905087271
21	68.352266595	5.99890961513
22	67.3560958008	5.91148107979
23	67.5522543851	4.93090889487
24	66.7554135667	4.3267195949
25	65.7575074324	4.26204079517
26	64.7596012981	4.19736199543
27	65.4529507271	4.91796352845
28	66.0499914737	4.11575261677
29	65.0519272738	4.05356055208
30	64.391978779	3.30224970822
31	63.4751021837	3.70142048511
32	62.47679806	3.64320642626
33	63.4578594832	3.83690331297
34	62.459682422	3.77654973495
35	63.3684066391	4.19394678489
36	63.3246152955	3.19490608591
37	62.3258856148	3.14451734656
38	61.4288887868	2.70248036792
39	60.4298551045	2.65852924058
40	60.484383674	1.66001702978
41	61.4596958356	1.88084770562
42	60.5685802107	2.33462401945
43	60.1643712561	3.24929069156
44	61.0367120804	2.76039245442
45	60.8874755539	1.77159092775
46	60.6780765122	0.793760655497
47	59.9757692481	1.50563459581
48	60.5246525033	0.669735575463
49	59.5247137203	0.658670752312
50	60.3006083949	1.28953322065
51	59.3066417274	1.17985066065
52	58.3264066347	1.37768686289
53	59.3168196299	1.23954889224
54	59.6169454128	0.285649256831
55	60.3273050999	-0.418189584791
