#t	x	y
0	79.4050213723	59.9445777344
1	78.6069108109	59.3420667123
2	79.5481101258	59.0042148963
3	78.5598933206	59.1572754915
4	77.761053321	58.5557319312
5	77.7490908794	57.5558034837
6	77.8724010598	56.5634353064
7	78.7201772565	57.0937894525
8	79.6761922313	57.3871073142
9	79.5852234143	56.3912535728
10	78.8935543337	55.6690390044
11	79.1004537255	56.6474012285
12	80.0604300703	56.3673201379
13	80.8157931121	55.7120135874
14	79.9854215182	55.1548035587
15	80.1953109906	54.1770784392
16	79.2311283478	54.4423176359
17	78.3652348352	54.9425460085
18	79.1476581225	55.5652929873
19	78.1809369646	55.82112536
20	78.7700379378	55.0130659294
21	79.7642411147	55.1205835705
22	79.6870111027	56.117596873
23	79.6859465088	57.1175963063
24	80.4078973493	57.8095406566
25	81.4013535786	57.6953271704
26	80.4941237438	58.1159624362
27	79.6833552074	57.5305955595
28	80.1536837033	56.6481041397
29	79.1578578692	56.7393779488
30	78.2424536568	56.3368420772
31	77.4909604873	56.9965829476
32	77.1416884408	56.0595615831
33	76.9406323818	55.0799818461
34	77.775479091	55.6304643365
35	78.7331860522	55.9182096691
36	77.7489760677	56.0952144896
37	76.7800701532	55.8477850477
38	77.6978448372	55.4506835124
39	78.6254923976	55.0772266827
40	78.1296789284	54.208797639
41	77.1310262539	54.2606901775
42	76.313136506	53.6853152038
43	76.0990975795	52.7084900721
44	77.0747916273	52.4893528433
45	77.4833277407	53.4020949997
46	78.0682286543	54.2131997533
47	77.4333910198	53.4405541826
48	77.5492516218	52.447288699
49	78.5379396188	52.5972755134
50	77.5921238283	52.272571817
51	78.3301028141	51.5977481241
52	77.447849985	51.1269722268
53	77.1470453263	52.0806580017
54	76.5796689633	52.9041165997
55	76.8151596759	51.9322400004
56	76.4042652452	52.8439229315
57	76.1741604246	51.8707570815
58	75.3475990326	51.3079105081
59	74.8935089705	52.1988662957
60	75.5214276614	52.9771452415
61	74.8592531709	53.7264949223
62	74.0468337661	53.1434214186
63	73.1548919313	52.6912712629
64	72.2387798524	52.2903490025
65	71.418072134	51.7190007366
66	72.4059172033	51.5635590466
67	71.6424919809	52.2094552687
68	71.5270248824	53.2027665739
69	71.483948339	54.2018383488
70	72.1822514166	54.9176405644
71	73.0747182016	54.4665274548
72	72.2729336786	53.8689142198
73	73.0447840148	54.5047184809
74	73.8959986146	55.0295362636
75	73.9450531098	54.0307401601
76	73.1376306258	53.4407664891
77	72.3302081419	52.8507928182
78	72.5079446132	51.866714698
79	72.7732000973	50.9025365359
80	72.1352046658	50.132496388
81	71.3140406426	49.5618041355
82	70.5860079769	48.8762616951
83	70.0094342708	48.0592165547
84	69.1506291903	47.546914072
85	70.0528147108	47.1155658522
86	70.9240190269	46.6246452481
87	71.9142638365	46.4853067501
88	72.1934918281	45.5250819177
89	72.0492610273	44.5355378428
90	71.0694297122	44.3357114329
91	70.2621057494	44.9258199136
92	71.261310272	44.965698755
93	72.2101212399	44.6498542565
94	72.206045427	45.6498459504
95	73.1858968876	45.4501183483
96	72.3363835946	44.9225511345
97	72.9528367108	45.7099427496
98	72.0031550958	45.3967258438
99	72.9641318372	45.6733550224
