#t	x	y
0	45.5739120429	50.9792478707
1	45.9564073992	51.9032052844
2	46.7854261808	51.3439845233
3	47.3708422469	52.1547175432
4	47.995486724	52.9356268063
5	48.6197437168	52.1544077545
6	47.6624252395	52.4434429307
7	48.3349942517	53.1834773379
8	49.3301558684	53.0852258411
9	49.3761464695	52.0862839686
10	48.3802001541	52.1762336033
11	49.057098118	51.4401567415
12	48.1502065406	51.0187926866
13	47.5143662163	50.2469720585
14	46.5298626034	50.4223363544
15	47.2080338432	51.157240273
16	48.1564669785	51.4742175401
17	47.1839660408	51.2413185789
18	48.0533019907	50.7470969624
19	47.3783426343	50.009242053
20	48.22956167	50.534052641
21	47.3766962277	51.0561834076
22	47.6528692599	50.0950754759
23	48.3420940814	50.8196230213
24	47.7882253661	49.987019006
25	48.4792558445	50.7098446267
26	47.4849209108	50.8161368634
27	47.0212701662	51.7021549146
28	46.6798687162	50.7622373384
29	46.0177640335	50.0128259767
30	45.1809545793	49.4653317417
31	44.1816037836	49.4293041534
32	43.9668428343	48.4526375088
33	44.9440914647	48.2405405627
34	44.1255374419	47.6661110093
35	43.7085534605	48.5750248442
36	44.3479381976	49.3439118046
37	44.0733570333	48.3823478784
38	44.7467774158	49.1216076355
39	45.6908361484	48.7918302722
40	46.3743670869	49.5217518133
41	45.5712544335	50.1175790249
42	46.2440065875	50.8574469451
43	45.899156923	51.7961048747
44	45.5155804845	52.7196140062
45	46.1958969218	51.9866954942
46	45.287855881	52.4055767044
47	44.2934619135	52.5113152379
48	45.2931448475	52.536495223
49	46.2069290599	52.1302952561
50	47.2010159396	52.2388828964
51	46.8251748458	53.165567024
52	46.2121379942	53.9556213377
53	45.4870857129	54.6443151661
54	46.1259895237	53.8750285352
55	46.8485910479	53.1837637254
56	46.3228451861	54.0344054178
57	45.340713792	53.8462089118
58	46.3289780606	53.998962751
59	46.7217163602	54.9186130259
60	46.4856562273	53.9468745767
61	47.0215185186	54.7911799745
62	46.644372815	55.7173339132
63	46.7035352541	54.7190855444
64	46.1083636974	55.5226842117
65	45.5321765529	56.3400020046
66	46.1607374547	57.1177623743
67	47.1274176425	57.3737495117
68	46.3646378089	56.727091236
69	46.9974794955	57.5013724509
70	46.9344335276	58.4993830751
71	47.8017667739	58.0016551978
72	46.8988045249	58.4313750798
73	47.5981701676	59.1461391652
74	46.6052097687	59.0276923584
75	46.1212767805	58.1525873001
76	45.2217281305	57.715766712
77	45.8384834486	58.502921638
78	46.201840406	59.4345716374
79	47.1647903136	59.1648913165
80	46.3598916855	58.5714789822
81	46.2599030543	57.5764904025
82	46.2056866608	56.5779611928
83	46.6019995281	57.4960767145
84	46.0133032446	58.3044310216
85	45.1154202648	58.7446652258
86	45.9550051705	58.2014367416
87	46.6906908988	57.5241136952
88	47.320896028	58.3005423752
89	48.1956895353	57.8160464313
90	47.8109920454	56.893003723
91	47.5540760741	55.926569978
92	48.5503187437	56.0131756545
93	48.5116139925	57.0124263449
94	49.1596582467	57.7740290265
95	49.2628821312	58.7686871737
96	49.0279913054	57.7966654147
97	50.026913304	57.7502451521
98	51.0219959047	57.6511965891
99	50.073775522	57.3335834505
