#t	x	y
0	49.2381732688	50.2337231343
1	50.1977278443	49.9522004593
2	50.8879578887	50.6757904578
3	51.5965402751	51.3814185479
4	51.3268266283	52.3443591218
5	52.2253182259	51.9053684054
6	52.9345943009	52.6102992172
7	52.0930809998	52.0700628208
8	51.6518511306	52.9674569385
9	52.2225221654	52.1462781699
10	51.628908267	52.9510281557
11	52.3270198812	53.6670171041
12	52.2549800802	52.669615346
13	51.625927953	53.4469784666
14	52.4364109847	54.0327405816
15	53.13283759	54.7503686075
16	53.6634466085	55.5979853071
17	52.6942573698	55.3516679923
18	51.7313641336	55.081785396
19	51.6720377172	56.080024033
20	52.6720238409	56.0852920907
21	51.7750647193	56.5274055765
22	52.2721890986	55.6597262858
23	52.9567656216	56.3886672876
24	53.9552881359	56.3343277213
25	54.941887765	56.4974876791
26	54.6430619817	57.4517953607
27	54.0740371387	58.2741156925
28	53.9282305945	59.2634288136
29	53.0415706995	59.7258509482
30	54.0268357656	59.5548165964
31	54.5132172355	60.4285631648
32	54.6889260226	59.4441209765
33	55.1204710187	60.3462123889
34	54.1204766286	60.3495619621
35	54.0844122961	61.3489114324
36	54.0037768354	60.3521677731
37	55.0037753325	60.3504340428
38	54.1163012664	60.811291702
39	53.5283171971	61.62016421
40	54.5220150102	61.7322563877
41	55.1752514332	62.489410385
42	54.6295585996	63.3273956661
43	54.8434989121	62.3505489316
44	55.5469575549	61.6398127373
45	56.4182847792	62.1305151605
46	56.8778609808	63.0186535027
47	56.4857290479	63.9385624912
48	56.7935606213	62.9871216247
49	56.3209531974	62.1058485553
50	56.1783565018	61.1160676793
51	55.2121539535	61.3738517668
52	55.7163404801	62.2374465482
53	56.520958913	61.6436543476
54	56.8457734781	60.6978766262
55	57.5293402095	61.4277646476
56	57.0326577992	62.2956970086
57	56.0530499018	62.0947782011
58	55.8517595438	61.1152465825
59	56.1958855853	60.1763231205
60	55.2333337575	60.4474208496
61	54.3834372091	59.9204712722
62	53.4452820876	60.2666864768
63	53.5930859191	59.2776697796
64	54.2637302127	60.0194488784
65	54.1403060598	61.0118028871
66	53.2077321628	61.3727820092
67	52.8566573003	62.3091294025
68	52.0726037732	61.6884361879
69	52.71764102	62.4525873184
70	53.7054436402	62.6082985365
71	53.0597182528	63.3718682609
72	52.4150315575	64.1363151622
73	51.4410844364	64.3630903931
74	50.4912590503	64.0503097416
75	51.1103383769	64.8356381999
76	51.7294177035	65.6209666581
77	50.7752100614	65.9201117329
78	49.7757086689	65.9516865062
79	50.6802027979	66.3781725792
80	51.2870514777	67.1729899669
81	51.5741721013	66.2150955325
82	50.9111325553	66.9636799034
83	51.5163569954	67.7597347866
84	50.6397097154	67.2786011811
85	50.5123404427	66.2867458144
86	49.5654310407	66.6082463343
87	50.1060537956	67.449511475
88	49.2301419687	67.931982688
89	49.1989206347	66.9324701927
90	50.0624584029	67.4367543613
91	50.8636032575	66.8382838759
92	51.3519316476	65.9656239287
93	51.2418697023	66.9595486583
94	50.25065479	67.0918097551
95	50.8501339327	67.8922001332
96	50.2031035458	68.6546643477
97	49.4606114426	69.3245191654
98	49.6829110615	68.3495407659
99	50.3418625084	69.1017262421
