#t	x	y
0	82.1718310605	70.9110324559
1	81.1718767795	70.9014702519
2	81.9250230043	71.5593233997
3	82.6781692291	72.2171765475
4	83.4313154539	72.8750296953
5	84.3954551052	73.1404251222
6	85.1511543925	73.795343886
7	85.9068536797	74.4502626499
8	86.662552967	75.1051814138
9	86.6154580158	76.104071831
10	87.3666768528	76.7641250552
11	87.1000193621	75.8003336968
12	86.5443043434	76.6317065481
13	87.2929862068	77.2946360071
14	87.7490336049	76.404680519
15	86.9893006238	77.0549157052
16	87.7378578401	77.717985908
17	88.4864150565	78.3810561108
18	89.2349722728	79.0441263136
19	90.1208735822	79.5080000789
20	90.870754441	80.1695729756
21	91.847588464	79.955574631
22	92.601835616	80.6121652444
23	93.356082768	81.2687558579
24	94.1103299201	81.9253464713
25	94.8645770721	82.5819370848
26	95.6188242241	83.2385276982
27	96.3730713761	83.8951183117
28	97.1273185281	84.5517089251
29	97.8815656802	85.2082995386
30	98.6358128322	85.864890152
31	99.3900599842	86.5214807655
32	100.0	87.1780713789
