#t	x	y
0	97.1414045208	99.8393815617
1	96.4440481426	99.1226570108
2	97.4250389314	98.9286027081
3	96.4254331818	98.900525217
4	95.7273426173	98.1845157452
5	95.3133212475	97.2742485837
6	95.4226688722	98.2682521536
7	94.4234282025	98.3072147524
8	95.3228603154	97.8701542596
9	95.1894162416	98.8612106047
10	96.1860121803	98.943651705
11	95.4889680798	98.2266234475
12	94.7919239793	97.5095951901
13	94.0948798788	96.7925669327
14	93.3978357783	96.0755386752
15	92.7007916778	95.3585104178
16	91.7107713679	95.4994351711
17	91.2520666847	96.3880239475
18	90.5645718343	95.6618346949
19	90.5995058327	96.6612243164
20	91.4977057779	96.221637171
21	92.4294081972	96.584859695
22	91.7380141238	95.8623818508
23	92.15125016	96.7730058008
24	91.4616480326	96.0488173545
25	90.7156511174	96.7147667539
26	90.0875984942	95.9365958842
27	89.1805551566	96.3576331554
28	90.140216399	96.0764743036
29	90.9646758785	95.5105533139
30	90.6274084434	94.569144435
31	90.8320069926	93.5902984647
32	91.4154003882	94.4024881875
33	90.4176439461	94.4694365421
34	90.767248307	95.4063339702
35	90.0779752145	94.6818323456
36	90.9884654641	94.2683018082
37	90.1117103194	93.7873647892
38	90.3015876533	92.8055569678
39	90.3431031342	93.8046948286
40	89.714548855	94.5824605505
41	90.3617365962	93.8201298954
42	91.2545398129	93.3696829881
43	90.398637022	93.8868197328
44	89.7050387022	93.1664577608
45	89.0114403823	92.4460957889
46	88.0488202936	92.1752405418
47	88.7294861994	91.4426465719
48	88.0331064888	90.7249730399
49	87.047767306	90.8955798829
50	86.3561125515	90.1733515945
51	85.664457797	89.4511233061
52	85.203336259	90.3384602924
53	84.2038509016	90.3063819466
54	83.2161346606	90.1501237396
55	83.2017609476	89.1502270468
56	82.5194651266	88.4191508451
57	81.8371693055	87.6880746435
58	82.8329990538	87.5968435498
59	82.1459256345	86.8702555534
60	81.4588522152	86.1436675571
61	82.4033592003	86.4721588889
62	81.7134892897	85.7482255312
63	81.0236193792	85.0242921734
64	82.016128451	84.9021212184
65	81.3213512857	84.1828961559
66	80.3547185264	83.9267299819
67	80.7474692075	84.8463749691
68	80.0580764383	84.1219872209
69	79.0886715622	83.8765199396
70	78.4026352946	83.1489525959
71	78.5675480779	84.1352607496
72	77.8850380876	83.4043844857
73	76.8857655666	83.4425214589
74	77.5395427025	82.6858342999
75	76.8555002903	81.9563920621
76	76.1714578781	81.2269498242
77	75.1768137833	81.1235906214
78	74.1774935051	81.160454989
79	73.8144216108	82.092216117
80	73.1458001234	81.3486131943
81	72.477178636	80.6050102717
82	71.8085571486	79.861407349
83	71.1399356612	79.1178044264
84	71.1226397636	80.1176548411
85	71.8175067003	79.3985165093
86	71.146692234	78.6568912995
87	71.8565823823	79.3612037141
88	71.1853938629	78.6199170142
89	70.5142053435	77.8786303143
90	69.8430168241	77.1373436144
91	69.1718283047	76.3960569146
92	68.5006397853	75.6547702147
93	67.5942238433	75.2323839695
94	68.3500676549	75.8871359321
95	68.0405657104	76.8380347418
96	67.3776177178	76.0893692897
97	66.7146697252	75.3407038377
98	66.1626349508	74.506882749
99	65.4986395502	73.7591460922
