#t	x	y
0	75.8192026018	54.4788078666
1	74.8378276932	54.6709101536
2	75.645312721	55.2607982191
3	74.6616883601	55.0805674873
4	75.4664007877	55.6742322992
5	76.2711132153	56.2678971111
6	75.4189662101	55.7445946349
7	76.2231416312	56.3389866707
8	77.0273170522	56.9333787065
9	76.6150096607	56.0223339135
10	76.4121885231	57.0015497151
11	76.3163430595	56.0061534889
12	75.3548236333	55.7314165365
13	76.1588244381	56.3260447446
14	76.9628252429	56.9206729527
15	77.3691489429	56.0069437528
16	78.17918551	56.5933231181
17	78.989222077	57.1797024833
18	79.7992586441	57.7660818486
19	80.0288846057	58.7393608003
20	80.8350420794	59.331061846
21	80.8352635308	58.3310618705
22	79.8637806653	58.0939521025
23	78.8638126354	58.0859559093
24	77.8654592759	58.0285924218
25	78.6672868853	58.6261478458
26	78.4523831353	57.6495126129
27	78.2295457758	56.6746569768
28	79.039361619	57.2613411339
29	78.9352015966	58.255901685
30	79.7398038973	58.8497157448
31	80.544406198	59.4435298047
32	80.4763009856	58.4458516602
33	81.2854308154	59.0334815764
34	80.4123154606	59.5209952452
35	81.2160814466	60.1159408223
36	82.200716107	60.2905678123
37	83.0070741207	60.8819955371
38	83.006089407	61.8819950523
39	83.8078133864	62.4796895067
40	83.5929091453	61.5030543818
41	84.3983868428	62.0956804687
42	84.1804754635	61.1197119083
43	84.9896797577	61.7072392781
44	85.7988840519	62.2947666479
45	85.3382496319	61.4071766913
46	86.1642566937	61.9708364591
47	87.0728122866	61.5530724892
48	87.8893827045	62.130318323
49	87.3893905476	62.9963482549
50	86.9629478424	62.0918336784
51	86.0314850747	62.4556703344
52	86.8407250436	63.0431485661
53	87.6499650125	63.6306267978
54	88.1829367199	64.4767598601
55	87.3863820075	65.0813263081
56	87.8453963165	64.1928974341
57	88.6527953866	64.7829031473
58	89.4601944568	65.3729088604
59	90.3531141425	65.8231248473
60	91.2621728206	66.2397929644
61	92.0714682786	66.8271947534
62	92.8807637365	67.4145965424
63	91.8853883782	67.5106584807
64	92.6912575271	68.1027521514
65	93.4971266759	68.6948458221
66	92.7441917087	68.0367508934
67	93.5504957663	68.6282521755
68	92.8821302664	69.3720851934
69	93.6833273843	69.9704857099
70	92.8928215536	70.5829402238
71	93.6890481767	71.187938707
72	94.4852747997	71.7929371902
73	93.4858576191	71.827073668
74	94.4855711406	71.8031388599
75	95.2817572653	72.4081906385
76	94.4193087272	72.9143353996
77	95.2107804146	73.5255412308
78	96.0022521019	74.136747062
79	97.0005253761	74.1954877644
80	97.79480965	74.8030340525
81	97.9694254782	73.8183974126
82	97.1970653988	74.4535823524
83	96.2084338098	74.303224176
84	96.9998766233	74.9144673951
85	97.7913194368	75.5257106143
86	97.5803277946	76.5031984796
87	98.3673002209	77.1201866482
88	99.1542726473	77.7371748167
89	99.9412450737	78.3541629853
