#t	x	y
0	38.1305271176	84.3043593742
1	37.1758468804	84.6019927807
2	38.1733656781	84.6723934068
3	37.2598253765	85.0791416303
4	38.0639790748	85.6735630544
5	38.2808167838	86.6497707209
6	39.031959097	87.3099110281
7	39.440083477	88.2228373617
8	38.7758055849	87.4753516548
9	38.923673192	86.4863444906
10	39.3340801161	87.3982469835
11	39.0408973966	88.3543034113
12	39.4450666479	89.268987628
13	39.8492358991	90.1836718447
14	40.2534051504	91.0983560615
15	41.2518604653	91.1539166965
16	41.6641574679	92.0649661911
17	42.0764544705	92.9760156857
18	41.7972747006	92.0157768321
19	40.879957398	92.4139337942
20	41.7727113197	91.9633891956
21	42.7130099512	91.6230386651
22	42.2633192827	92.5162230261
23	42.4696382394	91.5377382341
24	42.8905047451	92.4448608192
25	41.9314295663	92.1617092671
26	41.2925333247	91.3924163499
27	41.863587456	90.5715039434
28	41.6315884109	91.544219957
29	42.0455609428	92.4545093301
30	42.2668091815	93.4297268529
31	42.6789849875	94.3408311856
32	43.6466408752	94.0885573603
33	42.9554591589	94.8112383654
34	43.5337847055	93.9954322842
35	44.1979260312	93.2478252353
36	44.9765934915	93.8752620738
37	45.4086722403	94.777097954
38	46.4075373456	94.7294691647
39	46.847476892	95.627496556
40	46.6314025925	94.6511196323
41	46.789754835	93.6637369469
42	46.6523296048	92.6732248036
43	47.1019759102	93.5664314986
44	47.1223888071	92.5666398635
45	47.5760531459	93.4578124998
46	48.0297174846	94.3489851362
47	48.4833818234	95.2401577725
48	48.9370461621	96.1313304088
49	49.9102579189	96.3612409922
50	50.6034904746	95.6405270242
51	50.6863295308	94.6439640855
52	51.0264031789	95.5843628912
53	51.6742136613	96.3461644264
54	51.2880733499	97.268604484
55	50.3737256542	96.8636745007
56	50.200668362	95.8787627414
57	49.8977858834	96.831790655
58	50.355849421	97.7207101089
59	50.8139129586	98.6096295628
60	51.6094970944	98.0037864454
61	52.0754454097	98.8885983844
62	52.5413937251	99.7734103234
63	51.5750541712	99.5161402968
64	51.6081641781	100.0
